{
  "project_info": {
    "project_number": "34496488857",
    "firebase_url": "https://projekts11718.firebaseio.com",
    "project_id": "projekts11718",
    "storage_bucket": "projekts11718.appspot.com"
  },
  "client": [
    {
      "client_info": {
        "mobilesdk_app_id": "1:34496488857:android:23f0024de84d1174",
        "android_client_info": {
          "package_name": "pl.edu.pjatk.s11718.android"
        }
      },
      "oauth_client": [
        {
          "client_id": "34496488857-kj706vv64stnd2aakf1e5o91i8m573a0.apps.googleusercontent.com",
          "client_type": 1,
          "android_info": {
            "package_name": "pl.edu.pjatk.s11718.android",
            "certificate_hash": "b7b7c9dd7f85767f96956a30f82a2fc961123dd8"
          }
        },
        {
          "client_id": "34496488857-0429vpaaef1kdi92uo7neqitbhv6nvfq.apps.googleusercontent.com",
          "client_type": 3
        }
      ],
      "api_key": [
        {
          "current_key": "AIzaSyCHni7Rlgvo7jHhoQ5QtZhL-xsRsYNAP8Y"
        }
      ],
      "services": {
        "analytics_service": {
          "status": 1
        },
        "appinvite_service": {
          "status": 2,
          "other_platform_oauth_client": [
            {
              "client_id": "34496488857-0429vpaaef1kdi92uo7neqitbhv6nvfq.apps.googleusercontent.com",
              "client_type": 3
            }
          ]
        },
        "ads_service": {
          "status": 2
        }
      }
    }
  ],
  "configuration_version": "1"
}